0|0|280|0|0|0|16|580|176|rgba(200,200,200,0.2)|
252.5|0|12|90|0|0|16|488|100|rgba(200,200,200,0.2)|
-252.5|0|12|90|0|0|16|488|100|rgba(200,200,200,0.2)|
0|0|264|0|0|0|16|521|100|rgba(200,200,200,0.2)|
0|0|-240|0|0|0|16|521|100|rgba(200,200,200,0.2)|
0|0|12|0|90|0|16|489|488|rgba(200,200,200,0.2)|